{
    "css": [
        "css/dataTables.bootstrap4.css",
        "css/dataTables.bootstrap4.min.css"
    ],
    "js": [
        "js/dataTables.bootstrap4.js",
        "js/dataTables.bootstrap4.min.js"
    ],
    "src-repo": "http://github.com/DataTables/DataTablesSrc",
    "last-sync": "21c0a145af07b3ec5d8273c3370f735becbc85b1",
    "last-tag": "1.10.19"
}